digraph G {

node [shape=plaintext]

{rank=same E220 E1206}

E220 [label="220
Collapse of the Han Dynasty"]

E581 [label="581
Establishment of the Sui Dynasty"]

E618 [label="618
Invention of Paper Money"]

E627 [label="627
Tang Taizong becomes emperor and
establishes the Tang Dynasty"]

E655 [label="655
Wu Zhao becomes empress"]

E850 [label="850
Invention of Gunpowder"]

E907 [label="907
Chinese rebels sacked and burned the Tang
capital and murdered the last Tang emperor.
The Tang Dynasty officially collapses"]

E960 [label="960
Beginning of the Song Dynasty"]

E1200 [label="1200
Temujin sought to unify the Mongols under
his leadership"]

E1206 [label="1206
Temujin becomes Genghis Khan, \"Ruler of all\""
pos = "0,0!"]

E1200_1300 [label="mid-1200s to mid-1300s
Period of stability and peace, known as Pax
Mongolica"]

E1227 [label="1227
Genghis Khan becomes sick and dies"]

E1259 [label="1259
Mongols divided empire into 4 regions"]

E1271_11_05 [label="1271-11-05
Kublai Khan, grandson of Genghis Khan,
assumed title of Great Khan and founded the
Yuan Dynasty"]

E1275 [label="1275
Marco Polo reaches China"]

E1279 [label="1279
Central Asia becomes under Mongol Control"]

E1294_02_18 [label="1294-02-18
Kublai Khan dies & Yuan Dynasty is
overthrown"]

E1368 [label="1368
Mongol Empire officially ends"]

E220
->E581
->E618
->E627
->E655
->E850
->E907
->E960
->E1200
->E1206
->E1227
->E1200_1300
->E1259
->E1271_11_05
->E1275
->E1279
->E1294_02_18
->E1368

}